{
  "name": "km",
  "modes": [
    {
      "name": "Main",
      "keys": [
        {
          "character": "ឆ",
          "x": 0.0,
          "y": 0.0,
          "w": 0.8333333333333334
        },
        {
          "character": "ឹ",
          "x": 0.8333333333333334,
          "y": 0.0,
          "w": 0.8333333333333334
        },
        {
          "character": "េ",
          "x": 1.6666666666666667,
          "y": 0.0,
          "w": 0.8333333333333334
        },
        {
          "character": "រ",
          "x": 2.5,
          "y": 0.0,
          "w": 0.8333333333333334
        },
        {
          "character": "ត",
          "x": 3.3333333333333335,
          "y": 0.0,
          "w": 0.8333333333333334
        },
        {
          "character": "យ",
          "x": 4.166666666666667,
          "y": 0.0,
          "w": 0.8333333333333334
        },
        {
          "character": "ុ",
          "x": 5.0,
          "y": 0.0,
          "w": 0.8333333333333334
        },
        {
          "character": "ិ",
          "x": 5.833333333333334,
          "y": 0.0,
          "w": 0.8333333333333334
        },
        {
          "character": "ោ",
          "x": 6.666666666666667,
          "y": 0.0,
          "w": 0.8333333333333334
        },
        {
          "character": "ផ",
          "x": 7.5,
          "y": 0.0,
          "w": 0.8333333333333334
        },
        {
          "character": "ៀ",
          "x": 8.333333333333334,
          "y": 0.0,
          "w": 0.8333333333333334
        },
        {
          "character": "ឪ",
          "x": 9.166666666666668,
          "y": 0.0,
          "w": 0.8333333333333334
        },
        {
          "character": "ា",
          "x": 0.0,
          "y": 1.0,
          "w": 0.8333333333333334
        },
        {
          "character": "ស",
          "x": 0.8333333333333334,
          "y": 1.0,
          "w": 0.8333333333333334
        },
        {
          "character": "ដ",
          "x": 1.6666666666666667,
          "y": 1.0,
          "w": 0.8333333333333334
        },
        {
          "character": "ថ",
          "x": 2.5,
          "y": 1.0,
          "w": 0.8333333333333334
        },
        {
          "character": "ង",
          "x": 3.3333333333333335,
          "y": 1.0,
          "w": 0.8333333333333334
        },
        {
          "character": "ហ",
          "x": 4.166666666666667,
          "y": 1.0,
          "w": 0.8333333333333334
        },
        {
          "character": "្",
          "x": 5.0,
          "y": 1.0,
          "w": 0.8333333333333334
        },
        {
          "character": "ក",
          "x": 5.833333333333334,
          "y": 1.0,
          "w": 0.8333333333333334
        },
        {
          "character": "ល",
          "x": 6.666666666666667,
          "y": 1.0,
          "w": 0.8333333333333334
        },
        {
          "character": "ើ",
          "x": 7.5,
          "y": 1.0,
          "w": 0.8333333333333334
        },
        {
          "character": "់",
          "x": 8.333333333333334,
          "y": 1.0,
          "w": 0.8333333333333334
        },
        {
          "character": "ឮ",
          "x": 9.166666666666668,
          "y": 1.0,
          "w": 0.8333333333333334
        },
        {
          "label": "⇧",
          "x": 0.0,
          "y": 2.0,
          "w": 1.5,
          "target": "Capitals"
        },
        {
          "character": "ឋ",
          "x": 1.5,
          "y": 2.0,
          "w": 0.7
        },
        {
          "character": "ខ",
          "x": 2.2,
          "y": 2.0,
          "w": 0.7
        },
        {
          "character": "ច",
          "x": 2.9,
          "y": 2.0,
          "w": 0.7
        },
        {
          "character": "វ",
          "x": 3.5999999999999996,
          "y": 2.0,
          "w": 0.7
        },
        {
          "character": "ប",
          "x": 4.3,
          "y": 2.0,
          "w": 0.7
        },
        {
          "character": "ន",
          "x": 5.0,
          "y": 2.0,
          "w": 0.7
        },
        {
          "character": "ម",
          "x": 5.699999999999999,
          "y": 2.0,
          "w": 0.7
        },
        {
          "character": "ុំ",
          "x": 6.3999999999999995,
          "y": 2.0,
          "w": 0.7
        },
        {
          "character": "។",
          "x": 7.1,
          "y": 2.0,
          "w": 0.7
        },
        {
          "character": "៊",
          "x": 7.8,
          "y": 2.0,
          "w": 0.7
        },
        {
          "label": "⌫",
          "keyval": 65288,
          "x": 8.5,
          "y": 2.0,
          "w": 1.5
        },
        {
          "label": "?123",
          "x": 0.0,
          "y": 3.0,
          "w": 1.5,
          "target": "Numbers"
        },
        {
          "character": ",",
          "x": 1.5,
          "y": 3.0,
          "w": 1.0
        },
        {
          "label": "☺",
          "target": "Emoji",
          "x": 2.5,
          "y": 3.0,
          "w": 1.0
        },
        {
          "character": " ",
          "x": 3.5,
          "y": 3.0,
          "w": 4.0
        },
        {
          "character": ".",
          "x": 7.5,
          "y": 3.0,
          "w": 1.0
        },
        {
          "label": "↵",
          "character": "\n",
          "x": 8.5,
          "y": 3.0,
          "w": 1.5
        }
      ]
    },
    {
      "name": "Numbers",
      "keys": [
        {
          "character": "1",
          "x": 0.0,
          "y": 0.0,
          "w": 1.0
        },
        {
          "character": "2",
          "x": 1.0,
          "y": 0.0,
          "w": 1.0
        },
        {
          "character": "3",
          "x": 2.0,
          "y": 0.0,
          "w": 1.0
        },
        {
          "character": "4",
          "x": 3.0,
          "y": 0.0,
          "w": 1.0
        },
        {
          "character": "5",
          "x": 4.0,
          "y": 0.0,
          "w": 1.0
        },
        {
          "character": "6",
          "x": 5.0,
          "y": 0.0,
          "w": 1.0
        },
        {
          "character": "7",
          "x": 6.0,
          "y": 0.0,
          "w": 1.0
        },
        {
          "character": "8",
          "x": 7.0,
          "y": 0.0,
          "w": 1.0
        },
        {
          "character": "9",
          "x": 8.0,
          "y": 0.0,
          "w": 1.0
        },
        {
          "character": "0",
          "x": 9.0,
          "y": 0.0,
          "w": 1.0
        },
        {
          "character": "@",
          "x": 0.5,
          "y": 1.0,
          "w": 1.0
        },
        {
          "character": "#",
          "x": 1.5,
          "y": 1.0,
          "w": 1.0
        },
        {
          "character": "$",
          "x": 2.5,
          "y": 1.0,
          "w": 1.0
        },
        {
          "character": "%",
          "x": 3.5,
          "y": 1.0,
          "w": 1.0
        },
        {
          "character": "&",
          "x": 4.5,
          "y": 1.0,
          "w": 1.0
        },
        {
          "character": "-",
          "x": 5.5,
          "y": 1.0,
          "w": 1.0
        },
        {
          "character": "+",
          "x": 6.5,
          "y": 1.0,
          "w": 1.0
        },
        {
          "character": "(",
          "x": 7.5,
          "y": 1.0,
          "w": 1.0
        },
        {
          "character": ")",
          "x": 8.5,
          "y": 1.0,
          "w": 1.0
        },
        {
          "label": "=\\<",
          "x": 0.0,
          "y": 2.0,
          "w": 1.5,
          "target": "Special"
        },
        {
          "character": "*",
          "x": 1.5,
          "y": 2.0,
          "w": 1.0
        },
        {
          "character": "\"",
          "x": 2.5,
          "y": 2.0,
          "w": 1.0
        },
        {
          "character": "'",
          "x": 3.5,
          "y": 2.0,
          "w": 1.0
        },
        {
          "character": ":",
          "x": 4.5,
          "y": 2.0,
          "w": 1.0
        },
        {
          "character": ";",
          "x": 5.5,
          "y": 2.0,
          "w": 1.0
        },
        {
          "character": "!",
          "x": 6.5,
          "y": 2.0,
          "w": 1.0
        },
        {
          "character": "?",
          "x": 7.5,
          "y": 2.0,
          "w": 1.0
        },
        {
          "label": "⌫",
          "keyval": 65288,
          "x": 8.5,
          "y": 2.0,
          "w": 1.5
        },
        {
          "label": "ABC",
          "x": 0.0,
          "y": 3.0,
          "w": 1.5,
          "target": "Main"
        },
        {
          "character": "_",
          "x": 1.5,
          "y": 3.0,
          "w": 1.0
        },
        {
          "character": "/",
          "x": 2.5,
          "y": 3.0,
          "w": 1.0
        },
        {
          "character": " ",
          "x": 3.5,
          "y": 3.0,
          "w": 3.0
        },
        {
          "character": ",",
          "x": 6.5,
          "y": 3.0,
          "w": 1.0
        },
        {
          "character": ".",
          "x": 7.5,
          "y": 3.0,
          "w": 1.0
        },
        {
          "label": "↵",
          "character": "\n",
          "x": 8.5,
          "y": 3.0,
          "w": 1.5
        }
      ]
    },
    {
      "name": "Special",
      "keys": [
        {
          "character": "~",
          "x": 0.0,
          "y": 0.0,
          "w": 1.0
        },
        {
          "character": "`",
          "x": 1.0,
          "y": 0.0,
          "w": 1.0
        },
        {
          "character": "|",
          "x": 2.0,
          "y": 0.0,
          "w": 1.0
        },
        {
          "character": "•",
          "x": 3.0,
          "y": 0.0,
          "w": 1.0
        },
        {
          "character": "√",
          "x": 4.0,
          "y": 0.0,
          "w": 1.0
        },
        {
          "character": "Π",
          "x": 5.0,
          "y": 0.0,
          "w": 1.0
        },
        {
          "character": "÷",
          "x": 6.0,
          "y": 0.0,
          "w": 1.0
        },
        {
          "character": "×",
          "x": 7.0,
          "y": 0.0,
          "w": 1.0
        },
        {
          "character": "¶",
          "x": 8.0,
          "y": 0.0,
          "w": 1.0
        },
        {
          "character": "∆",
          "x": 9.0,
          "y": 0.0,
          "w": 1.0
        },
        {
          "character": "£",
          "x": 0.5,
          "y": 1.0,
          "w": 1.0
        },
        {
          "character": "¢",
          "x": 1.5,
          "y": 1.0,
          "w": 1.0
        },
        {
          "character": "€",
          "x": 2.5,
          "y": 1.0,
          "w": 1.0
        },
        {
          "character": "¥",
          "x": 3.5,
          "y": 1.0,
          "w": 1.0
        },
        {
          "character": "^",
          "x": 4.5,
          "y": 1.0,
          "w": 1.0
        },
        {
          "character": "°",
          "x": 5.5,
          "y": 1.0,
          "w": 1.0
        },
        {
          "character": "=",
          "x": 6.5,
          "y": 1.0,
          "w": 1.0
        },
        {
          "character": "{",
          "x": 7.5,
          "y": 1.0,
          "w": 1.0
        },
        {
          "character": "}",
          "x": 8.5,
          "y": 1.0,
          "w": 1.0
        },
        {
          "label": "?123",
          "x": 0.0,
          "y": 2.0,
          "w": 1.5,
          "target": "Numbers"
        },
        {
          "character": "\\",
          "x": 1.5,
          "y": 2.0,
          "w": 1.0
        },
        {
          "character": "©",
          "x": 2.5,
          "y": 2.0,
          "w": 1.0
        },
        {
          "character": "®",
          "x": 3.5,
          "y": 2.0,
          "w": 1.0
        },
        {
          "character": "™",
          "x": 4.5,
          "y": 2.0,
          "w": 1.0
        },
        {
          "character": "℅",
          "x": 5.5,
          "y": 2.0,
          "w": 1.0
        },
        {
          "character": "[",
          "x": 6.5,
          "y": 2.0,
          "w": 1.0
        },
        {
          "character": "]",
          "x": 7.5,
          "y": 2.0,
          "w": 1.0
        },
        {
          "label": "⌫",
          "keyval": 65288,
          "x": 8.5,
          "y": 2.0,
          "w": 1.5
        },
        {
          "label": "ABC",
          "x": 0.0,
          "y": 3.0,
          "w": 1.5,
          "target": "Main"
        },
        {
          "character": "<",
          "x": 1.5,
          "y": 3.0,
          "w": 1.0
        },
        {
          "character": ">",
          "x": 2.5,
          "y": 3.0,
          "w": 1.0
        },
        {
          "character": " ",
          "x": 3.5,
          "y": 3.0,
          "w": 3.0
        },
        {
          "character": ",",
          "x": 6.5,
          "y": 3.0,
          "w": 1.0
        },
        {
          "character": ".",
          "x": 7.5,
          "y": 3.0,
          "w": 1.0
        },
        {
          "label": "↵",
          "character": "\n",
          "x": 8.5,
          "y": 3.0,
          "w": 1.5
        }
      ]
    },
    {
      "name": "Emoji",
      "keys": [
        {
          "character": "😀",
          "x": 0.0,
          "y": 0.0,
          "w": 1.0
        },
        {
          "character": "😃",
          "x": 1.0,
          "y": 0.0,
          "w": 1.0
        },
        {
          "character": "😄",
          "x": 2.0,
          "y": 0.0,
          "w": 1.0
        },
        {
          "character": "😁",
          "x": 3.0,
          "y": 0.0,
          "w": 1.0
        },
        {
          "character": "😆",
          "x": 4.0,
          "y": 0.0,
          "w": 1.0
        },
        {
          "character": "😅",
          "x": 5.0,
          "y": 0.0,
          "w": 1.0
        },
        {
          "character": "🤣",
          "x": 6.0,
          "y": 0.0,
          "w": 1.0
        },
        {
          "character": "😂",
          "x": 7.0,
          "y": 0.0,
          "w": 1.0
        },
        {
          "character": "🙂",
          "x": 8.0,
          "y": 0.0,
          "w": 1.0
        },
        {
          "character": "🙃",
          "x": 9.0,
          "y": 0.0,
          "w": 1.0
        },
        {
          "character": "😉",
          "x": 0.0,
          "y": 1.0,
          "w": 1.0
        },
        {
          "character": "😊",
          "x": 1.0,
          "y": 1.0,
          "w": 1.0
        },
        {
          "character": "😊",
          "x": 2.0,
          "y": 1.0,
          "w": 1.0
        },
        {
          "character": "😇",
          "x": 3.0,
          "y": 1.0,
          "w": 1.0
        },
        {
          "character": "🥰",
          "x": 4.0,
          "y": 1.0,
          "w": 1.0
        },
        {
          "character": "😍",
          "x": 5.0,
          "y": 1.0,
          "w": 1.0
        },
        {
          "character": "🤩",
          "x": 6.0,
          "y": 1.0,
          "w": 1.0
        },
        {
          "character": "😘",
          "x": 7.0,
          "y": 1.0,
          "w": 1.0
        },
        {
          "character": "😗",
          "x": 8.0,
          "y": 1.0,
          "w": 1.0
        },
        {
          "character": "☺",
          "x": 9.0,
          "y": 1.0,
          "w": 1.0
        },
        {
          "character": "😚",
          "x": 0.0,
          "y": 2.0,
          "w": 1.0
        },
        {
          "character": "😙",
          "x": 1.0,
          "y": 2.0,
          "w": 1.0
        },
        {
          "character": "🥲",
          "x": 2.0,
          "y": 2.0,
          "w": 1.0
        },
        {
          "character": "😋",
          "x": 3.0,
          "y": 2.0,
          "w": 1.0
        },
        {
          "character": "😛",
          "x": 4.0,
          "y": 2.0,
          "w": 1.0
        },
        {
          "character": "😜",
          "x": 5.0,
          "y": 2.0,
          "w": 1.0
        },
        {
          "character": "🤪",
          "x": 6.0,
          "y": 2.0,
          "w": 1.0
        },
        {
          "character": "😝",
          "x": 7.0,
          "y": 2.0,
          "w": 1.0
        },
        {
          "character": "🤑",
          "x": 8.0,
          "y": 2.0,
          "w": 1.0
        },
        {
          "character": "🤗",
          "x": 9.0,
          "y": 2.0,
          "w": 1.0
        },
        {
          "label": "ABC",
          "x": 0.0,
          "y": 3.0,
          "w": 1.5,
          "target": "Main"
        },
        {
          "character": "🤭",
          "x": 1.5,
          "y": 3.0,
          "w": 1.0
        },
        {
          "character": "🤫",
          "x": 2.5,
          "y": 3.0,
          "w": 1.0
        },
        {
          "character": "🤔",
          "x": 3.5,
          "y": 3.0,
          "w": 1.0
        },
        {
          "character": "🤐",
          "x": 4.5,
          "y": 3.0,
          "w": 1.0
        },
        {
          "character": "🤨",
          "x": 5.5,
          "y": 3.0,
          "w": 1.0
        },
        {
          "character": "😐",
          "x": 6.5,
          "y": 3.0,
          "w": 1.0
        },
        {
          "character": "😑",
          "x": 7.5,
          "y": 3.0,
          "w": 1.0
        },
        {
          "label": "↵",
          "character": "\n",
          "x": 8.5,
          "y": 3.0,
          "w": 1.5
        }
      ]
    }
  ]
}