{
  "interaction_profile": "/interaction_profiles/htc/vive_controller",

   "bindings" : {
      "/actions/wm": {
         "poses": [
            {
               "output": "/actions/wm/in/hand_pose",
               "path": "/user/hand/right/input/aim/pose"
            },
            {
               "output": "/actions/wm/in/hand_pose",
               "path": "/user/hand/left/input/aim/pose"
            },
            {
               "output": "/actions/wm/in/hand_pose_hand_grip",
               "path": "/user/hand/right/input/grip/pose"
            },
            {
               "output": "/actions/wm/in/hand_pose_hand_grip",
               "path": "/user/hand/left/input/grip/pose"
            }
         ],
         "haptics": [
            {
               "output": "/actions/wm/out/haptic",
               "path": "/user/hand/right/output/haptic"
            },
            {
               "output": "/actions/wm/out/haptic",
               "path": "/user/hand/left/output/haptic"
            }
         ],
         "sources": [
            {
               "path": "/user/hand/right/input/trigger",
               "mode": "button",
               "inputs": {
                  "pull": {
                     "output": "/actions/wm/in/grab_window"
                  }
               }
            },
            {
               "path": "/user/hand/right/input/trigger",
               "mode": "button",
               "inputs": {
                  "click": {
                     "output": "/actions/wm/in/reset_orientation"
                  }
               }
            },
            {
               "path": "/user/hand/right/input/trackpad",
               "mode": "trackpad",
               "inputs": {
                  "position": {
                     "output": "/actions/wm/in/push_pull_scale"
                  }
               }
            },
            {
               "path": "/user/hand/right/input/menu",
               "mode": "button",
               "inputs": {
                  "click": {
                     "output": "/actions/wm/in/menu"
                  }
               }
            },
            {
               "path": "/user/hand/left/input/squeeze",
               "mode": "button",
               "inputs": {
                  "click": {
                     "output": "/actions/wm/in/show_keyboard"
                  }
               }
            },
            {
               "path": "/user/hand/left/input/trigger",
               "mode": "button",
               "inputs": {
                  "pull": {
                     "output": "/actions/wm/in/grab_window"
                  }
               }
            },
            {
               "path": "/user/hand/left/input/trigger",
               "mode": "button",
               "inputs": {
                  "click": {
                     "output": "/actions/wm/in/reset_orientation"
                  }
               }
            },
            {
               "path": "/user/hand/left/input/trackpad",
               "mode": "trackpad",
               "inputs": {
                  "position": {
                     "output": "/actions/wm/in/push_pull_scale"
                  }
               }
            },
            {
               "path": "/user/hand/left/input/menu",
               "mode": "button",
               "inputs": {
                  "click": {
                     "output": "/actions/wm/in/menu"
                  }
               }
            },
            {
               "path": "/user/hand/right/input/squeeze",
               "mode": "button",
               "inputs": {
                  "click": {
                     "output": "/actions/wm/in/show_keyboard"
                  }
               }
            }
         ]
      }
   }
}
